#Description:	Reference dgemm.

Size: 31	Mflop/s:  28935.2	Percentage: 78.63
Size: 32	Mflop/s:  32054.9	Percentage: 87.11
Size: 96	Mflop/s:  32307.4	Percentage: 87.79
Size: 97	Mflop/s:    31554	Percentage: 85.74
Size: 127	Mflop/s:  32065.8	Percentage: 87.14
Size: 128	Mflop/s:  34480.7	Percentage: 93.70
Size: 129	Mflop/s:  33680.6	Percentage: 91.52
Size: 191	Mflop/s:  35379.3	Percentage: 96.14
Size: 192	Mflop/s:  35811.9	Percentage: 97.31
Size: 229	Mflop/s:  38110.6	Percentage:103.56
Size: 255	Mflop/s:    44622	Percentage:121.26
Size: 256	Mflop/s:  45994.3	Percentage:124.98
Size: 257	Mflop/s:  43045.2	Percentage:116.97
Size: 319	Mflop/s:  43822.3	Percentage:119.08
Size: 320	Mflop/s:  46696.7	Percentage:126.89
Size: 321	Mflop/s:    44906	Percentage:122.03
Size: 417	Mflop/s:  46060.2	Percentage:125.16
Size: 479	Mflop/s:  45825.9	Percentage:124.53
Size: 480	Mflop/s:  47174.5	Percentage:128.19
Size: 511	Mflop/s:  45022.8	Percentage:122.34
Size: 512	Mflop/s:  46862.6	Percentage:127.34
Size: 639	Mflop/s:  46377.5	Percentage:126.03
Size: 640	Mflop/s:  47521.2	Percentage:129.13
Size: 767	Mflop/s:  46832.7	Percentage:127.26
Size: 768	Mflop/s:  47547.1	Percentage:129.20
Size: 769	Mflop/s:  46311.7	Percentage:125.85
#Average percentage of Peak = 111.727
