%!PS-Adobe-2.0
%%Title: generic.ps
%%Creator: gnuplot 4.6 patchlevel 2
%%CreationDate: Mon Feb 17 16:07:57 2020
%%DocumentFonts: (atend)
%%BoundingBox: 50 50 554 770
%%Orientation: Landscape
%%Pages: (atend)
%%EndComments
%%BeginProlog
/gnudict 256 dict def
gnudict begin
%
% The following true/false flags may be edited by hand if desired.
% The unit line width and grayscale image gamma correction may also be changed.
%
/Color true def
/Blacktext false def
/Solid false def
/Dashlength 1 def
/Landscape true def
/Level1 false def
/Rounded false def
/ClipToBoundingBox false def
/SuppressPDFMark false def
/TransparentPatterns false def
/gnulinewidth 5.000 def
/userlinewidth gnulinewidth def
/Gamma 1.0 def
/BackgroundColor {-1.000 -1.000 -1.000} def
%
/vshift -46 def
/dl1 {
  10.0 Dashlength mul mul
  Rounded { currentlinewidth 0.75 mul sub dup 0 le { pop 0.01 } if } if
} def
/dl2 {
  10.0 Dashlength mul mul
  Rounded { currentlinewidth 0.75 mul add } if
} def
/hpt_ 31.5 def
/vpt_ 31.5 def
/hpt hpt_ def
/vpt vpt_ def
/doclip {
  ClipToBoundingBox {
    newpath 50 50 moveto 554 50 lineto 554 770 lineto 50 770 lineto closepath
    clip
  } if
} def
%
% Gnuplot Prolog Version 4.6 (September 2012)
%
%/SuppressPDFMark true def
%
/M {moveto} bind def
/L {lineto} bind def
/R {rmoveto} bind def
/V {rlineto} bind def
/N {newpath moveto} bind def
/Z {closepath} bind def
/C {setrgbcolor} bind def
/f {rlineto fill} bind def
/g {setgray} bind def
/Gshow {show} def   % May be redefined later in the file to support UTF-8
/vpt2 vpt 2 mul def
/hpt2 hpt 2 mul def
/Lshow {currentpoint stroke M 0 vshift R 
	Blacktext {gsave 0 setgray show grestore} {show} ifelse} def
/Rshow {currentpoint stroke M dup stringwidth pop neg vshift R
	Blacktext {gsave 0 setgray show grestore} {show} ifelse} def
/Cshow {currentpoint stroke M dup stringwidth pop -2 div vshift R 
	Blacktext {gsave 0 setgray show grestore} {show} ifelse} def
/UP {dup vpt_ mul /vpt exch def hpt_ mul /hpt exch def
  /hpt2 hpt 2 mul def /vpt2 vpt 2 mul def} def
/DL {Color {setrgbcolor Solid {pop []} if 0 setdash}
 {pop pop pop 0 setgray Solid {pop []} if 0 setdash} ifelse} def
/BL {stroke userlinewidth 2 mul setlinewidth
	Rounded {1 setlinejoin 1 setlinecap} if} def
/AL {stroke userlinewidth 2 div setlinewidth
	Rounded {1 setlinejoin 1 setlinecap} if} def
/UL {dup gnulinewidth mul /userlinewidth exch def
	dup 1 lt {pop 1} if 10 mul /udl exch def} def
/PL {stroke userlinewidth setlinewidth
	Rounded {1 setlinejoin 1 setlinecap} if} def
3.8 setmiterlimit
% Default Line colors
/LCw {1 1 1} def
/LCb {0 0 0} def
/LCa {0 0 0} def
/LC0 {1 0 0} def
/LC1 {0 1 0} def
/LC2 {0 0 1} def
/LC3 {1 0 1} def
/LC4 {0 1 1} def
/LC5 {1 1 0} def
/LC6 {0 0 0} def
/LC7 {1 0.3 0} def
/LC8 {0.5 0.5 0.5} def
% Default Line Types
/LTw {PL [] 1 setgray} def
/LTb {BL [] LCb DL} def
/LTa {AL [1 udl mul 2 udl mul] 0 setdash LCa setrgbcolor} def
/LT0 {PL [] LC0 DL} def
/LT1 {PL [4 dl1 2 dl2] LC1 DL} def
/LT2 {PL [2 dl1 3 dl2] LC2 DL} def
/LT3 {PL [1 dl1 1.5 dl2] LC3 DL} def
/LT4 {PL [6 dl1 2 dl2 1 dl1 2 dl2] LC4 DL} def
/LT5 {PL [3 dl1 3 dl2 1 dl1 3 dl2] LC5 DL} def
/LT6 {PL [2 dl1 2 dl2 2 dl1 6 dl2] LC6 DL} def
/LT7 {PL [1 dl1 2 dl2 6 dl1 2 dl2 1 dl1 2 dl2] LC7 DL} def
/LT8 {PL [2 dl1 2 dl2 2 dl1 2 dl2 2 dl1 2 dl2 2 dl1 4 dl2] LC8 DL} def
/Pnt {stroke [] 0 setdash gsave 1 setlinecap M 0 0 V stroke grestore} def
/Dia {stroke [] 0 setdash 2 copy vpt add M
  hpt neg vpt neg V hpt vpt neg V
  hpt vpt V hpt neg vpt V closepath stroke
  Pnt} def
/Pls {stroke [] 0 setdash vpt sub M 0 vpt2 V
  currentpoint stroke M
  hpt neg vpt neg R hpt2 0 V stroke
 } def
/Box {stroke [] 0 setdash 2 copy exch hpt sub exch vpt add M
  0 vpt2 neg V hpt2 0 V 0 vpt2 V
  hpt2 neg 0 V closepath stroke
  Pnt} def
/Crs {stroke [] 0 setdash exch hpt sub exch vpt add M
  hpt2 vpt2 neg V currentpoint stroke M
  hpt2 neg 0 R hpt2 vpt2 V stroke} def
/TriU {stroke [] 0 setdash 2 copy vpt 1.12 mul add M
  hpt neg vpt -1.62 mul V
  hpt 2 mul 0 V
  hpt neg vpt 1.62 mul V closepath stroke
  Pnt} def
/Star {2 copy Pls Crs} def
/BoxF {stroke [] 0 setdash exch hpt sub exch vpt add M
  0 vpt2 neg V hpt2 0 V 0 vpt2 V
  hpt2 neg 0 V closepath fill} def
/TriUF {stroke [] 0 setdash vpt 1.12 mul add M
  hpt neg vpt -1.62 mul V
  hpt 2 mul 0 V
  hpt neg vpt 1.62 mul V closepath fill} def
/TriD {stroke [] 0 setdash 2 copy vpt 1.12 mul sub M
  hpt neg vpt 1.62 mul V
  hpt 2 mul 0 V
  hpt neg vpt -1.62 mul V closepath stroke
  Pnt} def
/TriDF {stroke [] 0 setdash vpt 1.12 mul sub M
  hpt neg vpt 1.62 mul V
  hpt 2 mul 0 V
  hpt neg vpt -1.62 mul V closepath fill} def
/DiaF {stroke [] 0 setdash vpt add M
  hpt neg vpt neg V hpt vpt neg V
  hpt vpt V hpt neg vpt V closepath fill} def
/Pent {stroke [] 0 setdash 2 copy gsave
  translate 0 hpt M 4 {72 rotate 0 hpt L} repeat
  closepath stroke grestore Pnt} def
/PentF {stroke [] 0 setdash gsave
  translate 0 hpt M 4 {72 rotate 0 hpt L} repeat
  closepath fill grestore} def
/Circle {stroke [] 0 setdash 2 copy
  hpt 0 360 arc stroke Pnt} def
/CircleF {stroke [] 0 setdash hpt 0 360 arc fill} def
/C0 {BL [] 0 setdash 2 copy moveto vpt 90 450 arc} bind def
/C1 {BL [] 0 setdash 2 copy moveto
	2 copy vpt 0 90 arc closepath fill
	vpt 0 360 arc closepath} bind def
/C2 {BL [] 0 setdash 2 copy moveto
	2 copy vpt 90 180 arc closepath fill
	vpt 0 360 arc closepath} bind def
/C3 {BL [] 0 setdash 2 copy moveto
	2 copy vpt 0 180 arc closepath fill
	vpt 0 360 arc closepath} bind def
/C4 {BL [] 0 setdash 2 copy moveto
	2 copy vpt 180 270 arc closepath fill
	vpt 0 360 arc closepath} bind def
/C5 {BL [] 0 setdash 2 copy moveto
	2 copy vpt 0 90 arc
	2 copy moveto
	2 copy vpt 180 270 arc closepath fill
	vpt 0 360 arc} bind def
/C6 {BL [] 0 setdash 2 copy moveto
	2 copy vpt 90 270 arc closepath fill
	vpt 0 360 arc closepath} bind def
/C7 {BL [] 0 setdash 2 copy moveto
	2 copy vpt 0 270 arc closepath fill
	vpt 0 360 arc closepath} bind def
/C8 {BL [] 0 setdash 2 copy moveto
	2 copy vpt 270 360 arc closepath fill
	vpt 0 360 arc closepath} bind def
/C9 {BL [] 0 setdash 2 copy moveto
	2 copy vpt 270 450 arc closepath fill
	vpt 0 360 arc closepath} bind def
/C10 {BL [] 0 setdash 2 copy 2 copy moveto vpt 270 360 arc closepath fill
	2 copy moveto
	2 copy vpt 90 180 arc closepath fill
	vpt 0 360 arc closepath} bind def
/C11 {BL [] 0 setdash 2 copy moveto
	2 copy vpt 0 180 arc closepath fill
	2 copy moveto
	2 copy vpt 270 360 arc closepath fill
	vpt 0 360 arc closepath} bind def
/C12 {BL [] 0 setdash 2 copy moveto
	2 copy vpt 180 360 arc closepath fill
	vpt 0 360 arc closepath} bind def
/C13 {BL [] 0 setdash 2 copy moveto
	2 copy vpt 0 90 arc closepath fill
	2 copy moveto
	2 copy vpt 180 360 arc closepath fill
	vpt 0 360 arc closepath} bind def
/C14 {BL [] 0 setdash 2 copy moveto
	2 copy vpt 90 360 arc closepath fill
	vpt 0 360 arc} bind def
/C15 {BL [] 0 setdash 2 copy vpt 0 360 arc closepath fill
	vpt 0 360 arc closepath} bind def
/Rec {newpath 4 2 roll moveto 1 index 0 rlineto 0 exch rlineto
	neg 0 rlineto closepath} bind def
/Square {dup Rec} bind def
/Bsquare {vpt sub exch vpt sub exch vpt2 Square} bind def
/S0 {BL [] 0 setdash 2 copy moveto 0 vpt rlineto BL Bsquare} bind def
/S1 {BL [] 0 setdash 2 copy vpt Square fill Bsquare} bind def
/S2 {BL [] 0 setdash 2 copy exch vpt sub exch vpt Square fill Bsquare} bind def
/S3 {BL [] 0 setdash 2 copy exch vpt sub exch vpt2 vpt Rec fill Bsquare} bind def
/S4 {BL [] 0 setdash 2 copy exch vpt sub exch vpt sub vpt Square fill Bsquare} bind def
/S5 {BL [] 0 setdash 2 copy 2 copy vpt Square fill
	exch vpt sub exch vpt sub vpt Square fill Bsquare} bind def
/S6 {BL [] 0 setdash 2 copy exch vpt sub exch vpt sub vpt vpt2 Rec fill Bsquare} bind def
/S7 {BL [] 0 setdash 2 copy exch vpt sub exch vpt sub vpt vpt2 Rec fill
	2 copy vpt Square fill Bsquare} bind def
/S8 {BL [] 0 setdash 2 copy vpt sub vpt Square fill Bsquare} bind def
/S9 {BL [] 0 setdash 2 copy vpt sub vpt vpt2 Rec fill Bsquare} bind def
/S10 {BL [] 0 setdash 2 copy vpt sub vpt Square fill 2 copy exch vpt sub exch vpt Square fill
	Bsquare} bind def
/S11 {BL [] 0 setdash 2 copy vpt sub vpt Square fill 2 copy exch vpt sub exch vpt2 vpt Rec fill
	Bsquare} bind def
/S12 {BL [] 0 setdash 2 copy exch vpt sub exch vpt sub vpt2 vpt Rec fill Bsquare} bind def
/S13 {BL [] 0 setdash 2 copy exch vpt sub exch vpt sub vpt2 vpt Rec fill
	2 copy vpt Square fill Bsquare} bind def
/S14 {BL [] 0 setdash 2 copy exch vpt sub exch vpt sub vpt2 vpt Rec fill
	2 copy exch vpt sub exch vpt Square fill Bsquare} bind def
/S15 {BL [] 0 setdash 2 copy Bsquare fill Bsquare} bind def
/D0 {gsave translate 45 rotate 0 0 S0 stroke grestore} bind def
/D1 {gsave translate 45 rotate 0 0 S1 stroke grestore} bind def
/D2 {gsave translate 45 rotate 0 0 S2 stroke grestore} bind def
/D3 {gsave translate 45 rotate 0 0 S3 stroke grestore} bind def
/D4 {gsave translate 45 rotate 0 0 S4 stroke grestore} bind def
/D5 {gsave translate 45 rotate 0 0 S5 stroke grestore} bind def
/D6 {gsave translate 45 rotate 0 0 S6 stroke grestore} bind def
/D7 {gsave translate 45 rotate 0 0 S7 stroke grestore} bind def
/D8 {gsave translate 45 rotate 0 0 S8 stroke grestore} bind def
/D9 {gsave translate 45 rotate 0 0 S9 stroke grestore} bind def
/D10 {gsave translate 45 rotate 0 0 S10 stroke grestore} bind def
/D11 {gsave translate 45 rotate 0 0 S11 stroke grestore} bind def
/D12 {gsave translate 45 rotate 0 0 S12 stroke grestore} bind def
/D13 {gsave translate 45 rotate 0 0 S13 stroke grestore} bind def
/D14 {gsave translate 45 rotate 0 0 S14 stroke grestore} bind def
/D15 {gsave translate 45 rotate 0 0 S15 stroke grestore} bind def
/DiaE {stroke [] 0 setdash vpt add M
  hpt neg vpt neg V hpt vpt neg V
  hpt vpt V hpt neg vpt V closepath stroke} def
/BoxE {stroke [] 0 setdash exch hpt sub exch vpt add M
  0 vpt2 neg V hpt2 0 V 0 vpt2 V
  hpt2 neg 0 V closepath stroke} def
/TriUE {stroke [] 0 setdash vpt 1.12 mul add M
  hpt neg vpt -1.62 mul V
  hpt 2 mul 0 V
  hpt neg vpt 1.62 mul V closepath stroke} def
/TriDE {stroke [] 0 setdash vpt 1.12 mul sub M
  hpt neg vpt 1.62 mul V
  hpt 2 mul 0 V
  hpt neg vpt -1.62 mul V closepath stroke} def
/PentE {stroke [] 0 setdash gsave
  translate 0 hpt M 4 {72 rotate 0 hpt L} repeat
  closepath stroke grestore} def
/CircE {stroke [] 0 setdash 
  hpt 0 360 arc stroke} def
/Opaque {gsave closepath 1 setgray fill grestore 0 setgray closepath} def
/DiaW {stroke [] 0 setdash vpt add M
  hpt neg vpt neg V hpt vpt neg V
  hpt vpt V hpt neg vpt V Opaque stroke} def
/BoxW {stroke [] 0 setdash exch hpt sub exch vpt add M
  0 vpt2 neg V hpt2 0 V 0 vpt2 V
  hpt2 neg 0 V Opaque stroke} def
/TriUW {stroke [] 0 setdash vpt 1.12 mul add M
  hpt neg vpt -1.62 mul V
  hpt 2 mul 0 V
  hpt neg vpt 1.62 mul V Opaque stroke} def
/TriDW {stroke [] 0 setdash vpt 1.12 mul sub M
  hpt neg vpt 1.62 mul V
  hpt 2 mul 0 V
  hpt neg vpt -1.62 mul V Opaque stroke} def
/PentW {stroke [] 0 setdash gsave
  translate 0 hpt M 4 {72 rotate 0 hpt L} repeat
  Opaque stroke grestore} def
/CircW {stroke [] 0 setdash 
  hpt 0 360 arc Opaque stroke} def
/BoxFill {gsave Rec 1 setgray fill grestore} def
/Density {
  /Fillden exch def
  currentrgbcolor
  /ColB exch def /ColG exch def /ColR exch def
  /ColR ColR Fillden mul Fillden sub 1 add def
  /ColG ColG Fillden mul Fillden sub 1 add def
  /ColB ColB Fillden mul Fillden sub 1 add def
  ColR ColG ColB setrgbcolor} def
/BoxColFill {gsave Rec PolyFill} def
/PolyFill {gsave Density fill grestore grestore} def
/h {rlineto rlineto rlineto gsave closepath fill grestore} bind def
%
% PostScript Level 1 Pattern Fill routine for rectangles
% Usage: x y w h s a XX PatternFill
%	x,y = lower left corner of box to be filled
%	w,h = width and height of box
%	  a = angle in degrees between lines and x-axis
%	 XX = 0/1 for no/yes cross-hatch
%
/PatternFill {gsave /PFa [ 9 2 roll ] def
  PFa 0 get PFa 2 get 2 div add PFa 1 get PFa 3 get 2 div add translate
  PFa 2 get -2 div PFa 3 get -2 div PFa 2 get PFa 3 get Rec
  TransparentPatterns {} {gsave 1 setgray fill grestore} ifelse
  clip
  currentlinewidth 0.5 mul setlinewidth
  /PFs PFa 2 get dup mul PFa 3 get dup mul add sqrt def
  0 0 M PFa 5 get rotate PFs -2 div dup translate
  0 1 PFs PFa 4 get div 1 add floor cvi
	{PFa 4 get mul 0 M 0 PFs V} for
  0 PFa 6 get ne {
	0 1 PFs PFa 4 get div 1 add floor cvi
	{PFa 4 get mul 0 2 1 roll M PFs 0 V} for
 } if
  stroke grestore} def
%
/languagelevel where
 {pop languagelevel} {1} ifelse
 2 lt
	{/InterpretLevel1 true def}
	{/InterpretLevel1 Level1 def}
 ifelse
%
% PostScript level 2 pattern fill definitions
%
/Level2PatternFill {
/Tile8x8 {/PaintType 2 /PatternType 1 /TilingType 1 /BBox [0 0 8 8] /XStep 8 /YStep 8}
	bind def
/KeepColor {currentrgbcolor [/Pattern /DeviceRGB] setcolorspace} bind def
<< Tile8x8
 /PaintProc {0.5 setlinewidth pop 0 0 M 8 8 L 0 8 M 8 0 L stroke} 
>> matrix makepattern
/Pat1 exch def
<< Tile8x8
 /PaintProc {0.5 setlinewidth pop 0 0 M 8 8 L 0 8 M 8 0 L stroke
	0 4 M 4 8 L 8 4 L 4 0 L 0 4 L stroke}
>> matrix makepattern
/Pat2 exch def
<< Tile8x8
 /PaintProc {0.5 setlinewidth pop 0 0 M 0 8 L
	8 8 L 8 0 L 0 0 L fill}
>> matrix makepattern
/Pat3 exch def
<< Tile8x8
 /PaintProc {0.5 setlinewidth pop -4 8 M 8 -4 L
	0 12 M 12 0 L stroke}
>> matrix makepattern
/Pat4 exch def
<< Tile8x8
 /PaintProc {0.5 setlinewidth pop -4 0 M 8 12 L
	0 -4 M 12 8 L stroke}
>> matrix makepattern
/Pat5 exch def
<< Tile8x8
 /PaintProc {0.5 setlinewidth pop -2 8 M 4 -4 L
	0 12 M 8 -4 L 4 12 M 10 0 L stroke}
>> matrix makepattern
/Pat6 exch def
<< Tile8x8
 /PaintProc {0.5 setlinewidth pop -2 0 M 4 12 L
	0 -4 M 8 12 L 4 -4 M 10 8 L stroke}
>> matrix makepattern
/Pat7 exch def
<< Tile8x8
 /PaintProc {0.5 setlinewidth pop 8 -2 M -4 4 L
	12 0 M -4 8 L 12 4 M 0 10 L stroke}
>> matrix makepattern
/Pat8 exch def
<< Tile8x8
 /PaintProc {0.5 setlinewidth pop 0 -2 M 12 4 L
	-4 0 M 12 8 L -4 4 M 8 10 L stroke}
>> matrix makepattern
/Pat9 exch def
/Pattern1 {PatternBgnd KeepColor Pat1 setpattern} bind def
/Pattern2 {PatternBgnd KeepColor Pat2 setpattern} bind def
/Pattern3 {PatternBgnd KeepColor Pat3 setpattern} bind def
/Pattern4 {PatternBgnd KeepColor Landscape {Pat5} {Pat4} ifelse setpattern} bind def
/Pattern5 {PatternBgnd KeepColor Landscape {Pat4} {Pat5} ifelse setpattern} bind def
/Pattern6 {PatternBgnd KeepColor Landscape {Pat9} {Pat6} ifelse setpattern} bind def
/Pattern7 {PatternBgnd KeepColor Landscape {Pat8} {Pat7} ifelse setpattern} bind def
} def
%
%
%End of PostScript Level 2 code
%
/PatternBgnd {
  TransparentPatterns {} {gsave 1 setgray fill grestore} ifelse
} def
%
% Substitute for Level 2 pattern fill codes with
% grayscale if Level 2 support is not selected.
%
/Level1PatternFill {
/Pattern1 {0.250 Density} bind def
/Pattern2 {0.500 Density} bind def
/Pattern3 {0.750 Density} bind def
/Pattern4 {0.125 Density} bind def
/Pattern5 {0.375 Density} bind def
/Pattern6 {0.625 Density} bind def
/Pattern7 {0.875 Density} bind def
} def
%
% Now test for support of Level 2 code
%
Level1 {Level1PatternFill} {Level2PatternFill} ifelse
%
/Symbol-Oblique /Symbol findfont [1 0 .167 1 0 0] makefont
dup length dict begin {1 index /FID eq {pop pop} {def} ifelse} forall
currentdict end definefont pop
Level1 SuppressPDFMark or 
{} {
/SDict 10 dict def
systemdict /pdfmark known not {
  userdict /pdfmark systemdict /cleartomark get put
} if
SDict begin [
  /Title (generic.ps)
  /Subject (gnuplot plot)
  /Creator (gnuplot 4.6 patchlevel 2)
  /Author (amorgenr)
%  /Producer (gnuplot)
%  /Keywords ()
  /CreationDate (Mon Feb 17 16:07:57 2020)
  /DOCINFO pdfmark
end
} ifelse
end
%%EndProlog
%%Page: 1 1
gnudict begin
gsave
doclip
50 50 translate
0.100 0.100 scale
90 rotate
0 -5040 translate
0 setgray
newpath
(Helvetica) findfont 140 scalefont setfont
BackgroundColor 0 lt 3 1 roll 0 lt exch 0 lt or or not {gsave BackgroundColor C clippath fill grestore} if
1.000 UL
LTb
LCb setrgbcolor
686 448 M
63 0 V
6198 0 R
-63 0 V
602 448 M
( 0) Rshow
1.000 UL
LTb
LCb setrgbcolor
686 827 M
63 0 V
6198 0 R
-63 0 V
602 827 M
( 0.5) Rshow
1.000 UL
LTb
LCb setrgbcolor
686 1206 M
63 0 V
6198 0 R
-63 0 V
-6282 0 R
( 1) Rshow
1.000 UL
LTb
LCb setrgbcolor
686 1586 M
63 0 V
6198 0 R
-63 0 V
-6282 0 R
( 1.5) Rshow
1.000 UL
LTb
LCb setrgbcolor
686 1965 M
63 0 V
6198 0 R
-63 0 V
-6282 0 R
( 2) Rshow
1.000 UL
LTb
LCb setrgbcolor
686 2344 M
63 0 V
6198 0 R
-63 0 V
-6282 0 R
( 2.5) Rshow
1.000 UL
LTb
LCb setrgbcolor
686 2723 M
63 0 V
6198 0 R
-63 0 V
-6282 0 R
( 3) Rshow
1.000 UL
LTb
LCb setrgbcolor
686 3102 M
63 0 V
6198 0 R
-63 0 V
-6282 0 R
( 3.5) Rshow
1.000 UL
LTb
LCb setrgbcolor
686 3481 M
63 0 V
6198 0 R
-63 0 V
-6282 0 R
( 4) Rshow
1.000 UL
LTb
LCb setrgbcolor
686 3861 M
63 0 V
6198 0 R
-63 0 V
-6282 0 R
( 4.5) Rshow
1.000 UL
LTb
LCb setrgbcolor
686 4240 M
63 0 V
6198 0 R
-63 0 V
-6282 0 R
( 5) Rshow
1.000 UL
LTb
LCb setrgbcolor
686 4619 M
63 0 V
6198 0 R
-63 0 V
-6282 0 R
( 5.5) Rshow
1.000 UL
LTb
LCb setrgbcolor
686 448 M
0 63 V
0 4108 R
0 -63 V
686 308 M
( 4) Cshow
1.000 UL
LTb
LCb setrgbcolor
1345 448 M
0 63 V
0 4108 R
0 -63 V
0 -4248 R
( 16) Cshow
1.000 UL
LTb
LCb setrgbcolor
2004 448 M
0 63 V
0 4108 R
0 -63 V
0 -4248 R
( 64) Cshow
1.000 UL
LTb
LCb setrgbcolor
2663 448 M
0 63 V
0 4108 R
0 -63 V
0 -4248 R
( 256) Cshow
1.000 UL
LTb
LCb setrgbcolor
3322 448 M
0 63 V
0 4108 R
0 -63 V
0 -4248 R
(1K) Cshow
1.000 UL
LTb
LCb setrgbcolor
3981 448 M
0 63 V
0 4108 R
0 -63 V
0 -4248 R
(4K) Cshow
1.000 UL
LTb
LCb setrgbcolor
4640 448 M
0 63 V
0 4108 R
0 -63 V
0 -4248 R
(16K) Cshow
1.000 UL
LTb
LCb setrgbcolor
5299 448 M
0 63 V
0 4108 R
0 -63 V
0 -4248 R
(64K) Cshow
1.000 UL
LTb
LCb setrgbcolor
5958 448 M
0 63 V
0 4108 R
0 -63 V
0 -4248 R
(256K) Cshow
1.000 UL
LTb
LCb setrgbcolor
6617 448 M
0 63 V
0 4108 R
0 -63 V
0 -4248 R
(1M) Cshow
1.000 UL
LTb
LCb setrgbcolor
1.000 UL
LTb
LCb setrgbcolor
686 4619 N
686 448 L
6261 0 V
0 4171 V
-6261 0 V
Z stroke
LCb setrgbcolor
112 2533 M
currentpoint gsave translate -270 rotate 0 0 M
(Time Read+Write \(nanoseconds\)) Cshow
grestore
LTb
LCb setrgbcolor
3816 98 M
(Stride \(bytes\)) Cshow
LTb
3816 4829 M
(10-Core Intel\(R\) Xeon\(R\) CPU E3-1585L v5 @ 3.00GHz Read+Write \(ns\) Versus Stride) Cshow
1.000 UP
1.000 UL
LTb
LCb setrgbcolor
% Begin plot #1
1.000 UP
1.000 UL
LT0
LC0 setrgbcolor
LCb setrgbcolor
6296 4486 M
(0.5 KB) Rshow
LT0
6380 4486 M
399 0 V
686 814 M
330 -49 V
329 0 V
330 -11 V
329 10 V
330 247 V
329 44 V
686 814 Pls
1016 765 Pls
1345 765 Pls
1675 754 Pls
2004 764 Pls
2334 1011 Pls
2663 1055 Pls
6579 4486 Pls
% End plot #1
% Begin plot #2
1.000 UP
1.000 UL
LT1
LC1 setrgbcolor
LCb setrgbcolor
6296 4346 M
(1 KB) Rshow
LT1
6380 4346 M
399 0 V
686 789 M
330 22 V
329 -44 V
330 11 V
329 -8 V
330 12 V
329 262 V
330 47 V
686 789 Crs
1016 811 Crs
1345 767 Crs
1675 778 Crs
2004 770 Crs
2334 782 Crs
2663 1044 Crs
2993 1091 Crs
6579 4346 Crs
% End plot #2
% Begin plot #3
1.000 UP
1.000 UL
LT2
LC2 setrgbcolor
LCb setrgbcolor
6296 4206 M
(2 KB) Rshow
LT2
6380 4206 M
399 0 V
686 798 M
330 11 V
329 19 V
330 -47 V
329 -4 V
330 -9 V
329 12 V
330 256 V
329 22 V
686 798 Star
1016 809 Star
1345 828 Star
1675 781 Star
2004 777 Star
2334 768 Star
2663 780 Star
2993 1036 Star
3322 1058 Star
6579 4206 Star
% End plot #3
% Begin plot #4
1.000 UP
1.000 UL
LT3
LC3 setrgbcolor
LCb setrgbcolor
6296 4066 M
(4 KB) Rshow
LT3
6380 4066 M
399 0 V
686 780 M
330 5 V
329 9 V
330 20 V
329 -44 V
330 -7 V
329 -6 V
330 11 V
329 253 V
330 31 V
686 780 Box
1016 785 Box
1345 794 Box
1675 814 Box
2004 770 Box
2334 763 Box
2663 757 Box
2993 768 Box
3322 1021 Box
3652 1052 Box
6579 4066 Box
% End plot #4
% Begin plot #5
1.000 UP
1.000 UL
LT4
LC4 setrgbcolor
LCb setrgbcolor
6296 3926 M
(8 KB) Rshow
LT4
6380 3926 M
399 0 V
686 776 M
330 1 V
329 5 V
330 9 V
329 20 V
330 -44 V
329 -2 V
330 64 V
329 -7 V
330 199 V
329 23 V
686 776 BoxF
1016 777 BoxF
1345 782 BoxF
1675 791 BoxF
2004 811 BoxF
2334 767 BoxF
2663 765 BoxF
2993 829 BoxF
3322 822 BoxF
3652 1021 BoxF
3981 1044 BoxF
6579 3926 BoxF
% End plot #5
% Begin plot #6
1.000 UP
1.000 UL
LT5
LC5 setrgbcolor
LCb setrgbcolor
6296 3786 M
(16 KB) Rshow
LT5
6380 3786 M
399 0 V
686 773 M
330 2 V
329 1 V
330 6 V
329 10 V
330 18 V
329 -42 V
330 71 V
329 72 V
330 46 V
329 55 V
330 33 V
686 773 Circle
1016 775 Circle
1345 776 Circle
1675 782 Circle
2004 792 Circle
2334 810 Circle
2663 768 Circle
2993 839 Circle
3322 911 Circle
3652 957 Circle
3981 1012 Circle
4311 1045 Circle
6579 3786 Circle
% End plot #6
% Begin plot #7
1.000 UP
1.000 UL
LT6
LC6 setrgbcolor
LCb setrgbcolor
6296 3646 M
(32 KB) Rshow
LT6
6380 3646 M
399 0 V
686 776 M
330 12 V
329 -14 V
330 5 V
329 3 V
330 16 V
329 12 V
330 31 V
329 71 V
330 132 V
329 204 V
330 -213 V
329 19 V
686 776 CircleF
1016 788 CircleF
1345 774 CircleF
1675 779 CircleF
2004 782 CircleF
2334 798 CircleF
2663 810 CircleF
2993 841 CircleF
3322 912 CircleF
3652 1044 CircleF
3981 1248 CircleF
4311 1035 CircleF
4640 1054 CircleF
6579 3646 CircleF
% End plot #7
% Begin plot #8
1.000 UP
1.000 UL
LT7
LC7 setrgbcolor
LCb setrgbcolor
6296 3506 M
(64 KB) Rshow
LT7
6380 3506 M
399 0 V
686 776 M
330 14 V
329 48 V
330 18 V
329 377 V
330 375 V
329 48 V
330 504 V
329 538 V
330 -363 V
329 876 V
4311 1237 L
329 -213 V
330 9 V
686 776 TriU
1016 790 TriU
1345 838 TriU
1675 856 TriU
2004 1233 TriU
2334 1608 TriU
2663 1656 TriU
2993 2160 TriU
3322 2698 TriU
3652 2335 TriU
3981 3211 TriU
4311 1237 TriU
4640 1024 TriU
4970 1033 TriU
6579 3506 TriU
% End plot #8
% Begin plot #9
1.000 UP
1.000 UL
LT8
LC8 setrgbcolor
LCb setrgbcolor
6296 3366 M
(128 KB) Rshow
LT8
6380 3366 M
399 0 V
686 767 M
330 25 V
329 60 V
330 19 V
329 420 V
330 380 V
329 88 V
330 536 V
329 534 V
330 437 V
329 851 V
330 -774 V
4640 1277 L
330 -217 V
329 14 V
686 767 TriUF
1016 792 TriUF
1345 852 TriUF
1675 871 TriUF
2004 1291 TriUF
2334 1671 TriUF
2663 1759 TriUF
2993 2295 TriUF
3322 2829 TriUF
3652 3266 TriUF
3981 4117 TriUF
4311 3343 TriUF
4640 1277 TriUF
4970 1060 TriUF
5299 1074 TriUF
6579 3366 TriUF
% End plot #9
% Begin plot #10
1.000 UP
1.000 UL
LT0
LC0 setrgbcolor
LCb setrgbcolor
6296 3226 M
(256 KB) Rshow
LT0
6380 3226 M
399 0 V
686 791 M
330 35 V
329 59 V
330 104 V
329 488 V
330 509 V
329 79 V
330 542 V
329 277 V
330 499 V
329 699 V
330 -334 V
329 -555 V
4970 1234 L
329 -207 V
330 18 V
686 791 TriD
1016 826 TriD
1345 885 TriD
1675 989 TriD
2004 1477 TriD
2334 1986 TriD
2663 2065 TriD
2993 2607 TriD
3322 2884 TriD
3652 3383 TriD
3981 4082 TriD
4311 3748 TriD
4640 3193 TriD
4970 1234 TriD
5299 1027 TriD
5629 1045 TriD
6579 3226 TriD
% End plot #10
% Begin plot #11
1.000 UP
1.000 UL
LT1
LC1 setrgbcolor
LCb setrgbcolor
6296 3086 M
(512 KB) Rshow
LT1
6380 3086 M
399 0 V
686 778 M
330 39 V
329 57 V
330 238 V
329 612 V
330 918 V
329 290 V
330 623 V
329 123 V
330 120 V
329 398 V
330 -55 V
329 -141 V
330 -782 V
5299 1299 L
330 -272 V
329 4 V
686 778 TriDF
1016 817 TriDF
1345 874 TriDF
1675 1112 TriDF
2004 1724 TriDF
2334 2642 TriDF
2663 2932 TriDF
2993 3555 TriDF
3322 3678 TriDF
3652 3798 TriDF
3981 4196 TriDF
4311 4141 TriDF
4640 4000 TriDF
4970 3218 TriDF
5299 1299 TriDF
5629 1027 TriDF
5958 1031 TriDF
6579 3086 TriDF
% End plot #11
% Begin plot #12
1.000 UP
1.000 UL
LT2
LC2 setrgbcolor
LCb setrgbcolor
6296 2946 M
(1 MB) Rshow
LT2
6380 2946 M
399 0 V
686 775 M
330 40 V
329 59 V
330 254 V
329 630 V
330 983 V
329 365 V
330 653 V
329 120 V
330 -53 V
329 365 V
330 29 V
329 -54 V
330 -102 V
329 -502 V
5629 1303 L
329 -279 V
330 17 V
686 775 Dia
1016 815 Dia
1345 874 Dia
1675 1128 Dia
2004 1758 Dia
2334 2741 Dia
2663 3106 Dia
2993 3759 Dia
3322 3879 Dia
3652 3826 Dia
3981 4191 Dia
4311 4220 Dia
4640 4166 Dia
4970 4064 Dia
5299 3562 Dia
5629 1303 Dia
5958 1024 Dia
6288 1041 Dia
6579 2946 Dia
% End plot #12
% Begin plot #13
1.000 UP
1.000 UL
LT3
LC3 setrgbcolor
LCb setrgbcolor
6296 2806 M
(2 MB) Rshow
LT3
6380 2806 M
399 0 V
686 777 M
330 40 V
329 56 V
330 257 V
329 628 V
330 981 V
329 371 V
330 693 V
329 106 V
330 -26 V
329 352 V
330 12 V
329 -41 V
330 -122 V
329 -126 V
330 -751 V
5958 1296 L
330 -270 V
329 14 V
686 777 DiaF
1016 817 DiaF
1345 873 DiaF
1675 1130 DiaF
2004 1758 DiaF
2334 2739 DiaF
2663 3110 DiaF
2993 3803 DiaF
3322 3909 DiaF
3652 3883 DiaF
3981 4235 DiaF
4311 4247 DiaF
4640 4206 DiaF
4970 4084 DiaF
5299 3958 DiaF
5629 3207 DiaF
5958 1296 DiaF
6288 1026 DiaF
6617 1040 DiaF
6579 2806 DiaF
% End plot #13
% Begin plot #14
1.000 UP
1.000 UL
LT4
LC4 setrgbcolor
LCb setrgbcolor
6296 2666 M
(4 MB) Rshow
LT4
6380 2666 M
399 0 V
686 778 M
330 40 V
329 61 V
330 255 V
329 627 V
330 980 V
329 381 V
330 662 V
329 140 V
330 0 V
329 349 V
330 29 V
329 -3 V
330 -66 V
329 -102 V
330 -58 V
329 -869 V
6288 1297 L
329 -279 V
330 14 V
686 778 Pent
1016 818 Pent
1345 879 Pent
1675 1134 Pent
2004 1761 Pent
2334 2741 Pent
2663 3122 Pent
2993 3784 Pent
3322 3924 Pent
3652 3924 Pent
3981 4273 Pent
4311 4302 Pent
4640 4299 Pent
4970 4233 Pent
5299 4131 Pent
5629 4073 Pent
5958 3204 Pent
6288 1297 Pent
6617 1018 Pent
6947 1032 Pent
6579 2666 Pent
% End plot #14
1.000 UL
LTb
LCb setrgbcolor
686 4619 N
686 448 L
6261 0 V
0 4171 V
-6261 0 V
Z stroke
1.000 UP
1.000 UL
LTb
LCb setrgbcolor
stroke
grestore
end
showpage
%%Trailer
%%DocumentFonts: Helvetica
%%Pages: 1
