Sender: LSF System <lsfadmin@eu-ms-013-20>
Subject: Job 111759626: <#!/bin/bash -l; # load modules;if command -v module 1>/dev/null 2>&1; then;   module load new;   module load gcc/6.3.0;fi; ./membench | sed -e '/:/	s//: /g' -e '/  */	s//	/g' | cut -f2,4,6 > generic.xxx && sed -e '/sarlacc/ s//generic/' gnuplot.template > generic.gp> in cluster <euler> Done

Job <#!/bin/bash -l; # load modules;if command -v module 1>/dev/null 2>&1; then;   module load new;   module load gcc/6.3.0;fi; ./membench | sed -e '/:/	s//: /g' -e '/  */	s//	/g' | cut -f2,4,6 > generic.xxx && sed -e '/sarlacc/ s//generic/' gnuplot.template > generic.gp> was submitted from host <eu-login-42> by user <amorgenr> in cluster <euler> at Mon Feb 17 15:59:36 2020
Job was executed on host(s) <eu-ms-013-20>, in queue <normal.4h>, as user <amorgenr> in cluster <euler> at Mon Feb 17 15:59:51 2020
</cluster/home/amorgenr> was used as the home directory.
</cluster/home/amorgenr/hpclab/Project1/membench> was used as the working directory.
Started at Mon Feb 17 15:59:51 2020
Terminated at Mon Feb 17 16:04:36 2020
Results reported at Mon Feb 17 16:04:36 2020

Your job looked like:

------------------------------------------------------------
# LSBATCH: User input
#!/bin/bash -l

# load modules
if command -v module 1>/dev/null 2>&1; then
   module load new
   module load gcc/6.3.0
fi

./membench | sed -e '/:/	s//: /g' -e '/  */	s//	/g' | cut -f2,4,6 > generic.xxx && sed -e '/sarlacc/ s//generic/' gnuplot.template > generic.gp

------------------------------------------------------------

Successfully completed.

Resource usage summary:

    CPU time :                                   280.75 sec.
    Max Memory :                                 7 MB
    Average Memory :                             4.25 MB
    Total Requested Memory :                     1024.00 MB
    Delta Memory :                               1017.00 MB
    Max Swap :                                   -
    Max Processes :                              6
    Max Threads :                                7
    Run time :                                   287 sec.
    Turnaround time :                            300 sec.

The output (if any) follows:

